1 10 20
100 200 125
201 210 89
900 1000 174
8915 668 262
2163 8257 262
5646 4721 236
213 9932 262
1329 5826 238
4912 4571 197
8881 3985 262
6479 5305 262
4397 4296 215
1329 179 182
183 2443 183
9236 6209 257
8530 3310 262
5781 2550 238
7053 6165 262
3289 4555 238
1271 5817 238
568 1956 182
7131 9632 260
7704 1743 262
9907 3700 262
434 3922 238
4136 9412 262
9827 7776 260
1276 2783 209
1845 8577 262
3652 9446 262
1413 7231 262
5206 3825 215
703 8445 262
4237 7014 262
620 5815 238
4013 4321 202
1257 1584 177
8343 4600 262
3022 8691 262
4423 2400 238
4817 6646 262
5363 228 238
2456 8997 262
9185 7947 252
1863 3961 238
5414 6943 262
3412 6498 262
2992 8573 262
3495 1362 217
4863 1877 238
5870 8457 262
6089 7158 262
7829 9599 260
59552 95249 351
54499 63783 335
59408 18226 340
44577 33245 324
63729 64684 299
49636 96616 351
33401 93000 351
27441 86698 351
64985 30137 340
65184 56793 335
30846 45722 324
74346 72862 294
73964 85006 351
23165 57725 340
93232 62133 351
61759 65260 330
69339 70066 299
63442 39781 340
99347 13008 351
72830 88463 351
48545 75411 340
68794 22340 340
21448 96130 351
48773 97640 351
46706 40894 314
56475 73758 335
53088 20084 340
58689 98336 351
53141 69922 335
70594 79854 351
91608 63944 351
26813 94442 351
16189 81875 351
39901 66540 340
13639 39115 324
11064 49105 324
17256 95779 351
74885 57448 335
42824 41759 288
66249 28170 340
60490 32404 340
35201 51660 324
79287 63489 351
63926 47936 340
93506 98286 328
10156 43913 324
19191 89512 351
68265 76212 325
16328 62643 340
30108 70440 340
40 91 116
2 70 113
17 78 116
80 73 116
100 5 119
58 12 113
90 32 116
97 33 119
74 29 116
88 91 93
73 54 116
37 86 116
100 20 119
61 10 113
76 32 116
46 89 116
41 13 112
71 51 113
39 50 110
21 77 116
6 65 113
89 12 116
28 35 107
16 39 112
35 19 112
88 47 116
92 57 116
16 61 113
98 3 119
71 50 113
82 60 116
45 70 113
8 27 112
21 79 116
7 63 113
23 36 112
39 75 116
96 70 116
4 65 113
51 63 113
81 80 23
26 29 112
48 5 112
23 4 21
33 44 110
4 57 113
64 6 113
51 37 110
15 36 112
42 65 113
