100000 100000 129
960658 137197 525
543125 580852 452
350087 641343 509
123711 567067 470
626657 835500 504
146089 284283 443
674583 788131 504
39253 201330 383
360062 520224 470
799504 9032 509
150327 676183 509
718874 862315 525
93319 341701 443
569040 909519 525
243995 780180 509
732498 531096 509
938803 445285 525
807012 728962 468
679364 302070 509
164093 969817 525
389133 420262 449
233205 152416 443
320929 437190 449
274151 258638 407
363233 627212 509
177303 912796 525
442652 755991 509
208789 724189 509
808042 131708 509
586597 488266 470
841261 127345 525
912341 409278 525
834062 223408 509
672074 807225 504
451472 133547 449
947318 755084 525
849737 917999 476
515706 608001 452
82910 843581 525
773109 306041 509
168317 549791 470
398222 699230 509
433396 360904 449
491030 110120 449
217924 881471 525
347882 336384 441
450863 660193 509
973913 762278 525
375692 877459 525
341207 997536 525
874674 685867 525
574533 613040 434
240 209531 383
953547 915255 507
794182 97911 509
591170 766235 509
502041 201120 449
165870 868244 525
65863 445797 449
941544 255758 525
898220 957114 507
929923 478772 525
341450 504434 449
375198 114826 443
255020 354463 441
273695 756632 509
968189 307556 525
382961 475632 449
633920 393007 509
333036 602810 470
713099 319251 509
331695 84844 443
882496 202890 525
292763 735656 509
441028 34184 449
327058 971560 525
786187 721098 468
240130 127727 443
559696 201554 470
242387 824055 509
206694 837286 509
37796 394363 443
652429 86199 509
60238 422237 449
98713 905278 525
441519 86331 449
677564 589375 509
939036 998933 507
147881 39514 375
860410 253716 525
142397 134920 344
820166 71426 509
560126 300238 470
337941 518351 470
910371 137882 525
865256 382156 525
746251 789064 468
95099 428457 449
392354 656069 509
235744 699115 509
352268 301669 441
688858 984571 525
930252 175284 525
980500 345065 525
275431 121278 443
425477 270030 449
854446 197404 525
698508 107580 509
785833 432192 509
783943 811621 468
47119 812187 509
655918 964190 525
214640 515926 470
576485 59926 470
328568 720629 509
919272 998685 507
690642 787853 504
679316 62067 509
39484 351178 443
491414 285542 449
359046 282947 441
910092 158143 525
540513 795670 509
21518 894882 525
865302 15741 525
982123 881043 507
718671 307650 509
142230 295788 443
385069 433914 449
466474 676966 509
137725 1725 354
860257 222197 525
164448 499160 449
52608 718892 509
347389 122913 443
165582 991807 525
531366 878175 525
461046 10364 449
927260 551134 525
434482 223 449
201095 377507 443
591978 488911 470
52304 675755 509
799343 854816 525
641334 748555 504
200909 357790 443
473676 214770 449
526326 72308 470
332116 450292 449
958521 74233 525
479133 264754 449
241325 959821 525
650411 40984 509
755370 850105 525
135179 779943 509
784587 752012 468
71553 538519 470
447550 411586 418
898264 519624 525
804252 713374 468
910235 686391 525
355947 813492 509
441214 932742 525
475368 298299 449
924772 599317 525
582638 347883 470
960458 377106 525
81429 328245 443
465757 297467 449
602280 393856 470
617117 122029 470
373741 916860 525
243296 972965 525
201041 370913 443
707781 315833 509
496969 381138 449
75157 729790 509
348210 376025 410
527584 557060 452
1776 56069 340
680015 336281 509
126902 349462 443
250357 445316 449
644067 460236 509
388938 845255 525
828602 938697 525
998956 145328 525
342487 150647 443
311250 686741 509
496076 687550 509
431864 370924 449
562732 789902 509
947850 825718 525
576317 50661 470
618326 333564 470
382177 584725 470
219926 802207 509
139413 834694 509
