.................
----------------------------------------------------------------------
Ran 17 tests in 0.049s

OK
Name             Stmts   Miss Branch BrPart  Cover   Missing
------------------------------------------------------------
Collatz.py          42      0     12      0   100%
TestCollatz.py      71      0      2      0   100%
------------------------------------------------------------
TOTAL              113      0     14      0   100%
